IS415-GAA - In-class Exercise 11: Spatial Interaction Modelling: simodels
…
Simple feature collection with 2505 features and 1 field
Geometry type: LINESTRING
Dimension:     XY
Bounding box:  xmin: -1.743949 ymin: 53.71552 xmax: -1.337493 ymax: 53.92906
Geodetic CRS:  WGS 84
# A tibble: 2,505 × 2
   interaction                                 geometry
         <dbl>                         <LINESTRING [°]>
 1    7890481  (-1.400108 53.92906, -1.400108 53.92906)
 2    2290854. (-1.400108 53.92906, -1.346497 53.92305)
 3    2290854. (-1.346497 53.92305, -1.400108 53.92906)
 4    5697769  (-1.346497 53.92305, -1.346497 53.92305)
 5    1850756. (-1.346497 53.92305, -1.357667 53.88306)
 6    6105841  (-1.704658 53.91073, -1.704658 53.91073)
 7    5753720.   (-1.704658 53.91073, -1.6876 53.90066)
 8    2202388. (-1.704658 53.91073, -1.743949 53.88035)
 9    2053541. (-1.704658 53.91073, -1.710657 53.87087)
10    1430755. (-1.704658 53.91073, -1.694076 53.86729)
# ℹ 2,495 more rows
…
Simple feature collection with 214 features and 4 fields
Geometry type: LINESTRING
Dimension:     XY
Bounding box:  xmin: -1.743949 ymin: 53.71552 xmax: -1.337493 ymax: 53.92906
Geodetic CRS:  WGS 84
# A tibble: 214 × 5
   O         D         destination_name  interaction                    geometry
   <chr>     <chr>     <chr>                   <dbl>            <LINESTRING [°]>
 1 E02002330 127960333 The Chemic Tavern       1.70  (-1.400108 53.92906, -1.55…
 2 E02002331 127960333 The Chemic Tavern       0.551 (-1.346497 53.92305, -1.55…
 3 E02002332 127960333 The Chemic Tavern       3.32  (-1.704658 53.91073, -1.55…
 4 E02002333 127960333 The Chemic Tavern      11.1   (-1.6876 53.90066, -1.5528…
 5 E02002334 127960333 The Chemic Tavern       3.48  (-1.357667 53.88306, -1.55…
 6 E02002335 127960333 The Chemic Tavern      38.5   (-1.470966 53.89184, -1.55…
 7 E02002336 127960333 The Chemic Tavern      53.3   (-1.624775 53.88589, -1.55…
 8 E02002337 127960333 The Chemic Tavern       4.50  (-1.743949 53.88035, -1.55…
 9 E02002338 127960333 The Chemic Tavern      14.9   (-1.710657 53.87087, -1.55…
10 E02002339 127960333 The Chemic Tavern      20.8   (-1.694076 53.86729, -1.55…
# ℹ 204 more rows
…
