IS415-GAA - Geographically Weighted Predictive Models: Geographical Random Forest (grf) methods
…
Reading the input data sets. It is in simple feature data frame.

rs_sf <- read_rds("data/rds/HDB_resale.rds")

Next, the code chunk below is used to reveal the properties of rs_sf object.

rs_sf

Simple feature collection with 15901 features and 17 fields
Geometry type: POINT
Dimension:     XY
Bounding box:  xmin: 11597.31 ymin: 28217.39 xmax: 42623.63 ymax: 48741.06
Projected CRS: SVY21 / Singapore TM
# A tibble: 15,901 × 18
   RESALE_PRICE FLOOR_AREA_SQM STOREY_ORDER REMAINING_LEASE_MTHS PROX_CBD
          <dbl>          <dbl>        <int>                <dbl>    <dbl>
 1       330000             92            1                  684     8.82
 2       360000             91            3                  738     9.84
 3       370000             92            1                  733     9.56
 4       375000             99            2                  700     9.61
 5       380000             92            2                  715     8.35
 6       380000             92            4                  732     9.49
 7       385000             92            3                  706     8.96
 8       395000             92            2                  745     9.81
 9       395000             93            4                  731    10.3 
10       395000             91            3                  725    10.4 
# ℹ 15,891 more rows
# ℹ 13 more variables: PROX_ELDERLYCARE <dbl>, PROX_HAWKER <dbl>,
#   PROX_MRT <dbl>, PROX_PARK <dbl>, PROX_GOOD_PRISCH <dbl>, PROX_MALL <dbl>,
#   PROX_CHAS <dbl>, PROX_SUPERMARKET <dbl>, WITHIN_350M_KINDERGARTEN <int>,
#   WITHIN_350M_CHILDCARE <int>, WITHIN_350M_BUS <int>,
#   WITHIN_1KM_PRISCH <int>, geometry <POINT [m]>
…
